{
  "/api/*":{
    "target":"http://localhost:5000",
    "secure":false,
    "logLevel":"debug"
  },
  "/auth/*":{
    "target":"http://localhost:5000",
    "secure":false,
    "logLevel":"debug"
  }
}